ISO-10303-21;
HEADER;
FILE_DESCRIPTION((''),'2;1');
FILE_NAME('CALIBRATION_STAND','2019-06-04T',('vklar'),(''),
'CREO PARAMETRIC BY PTC INC, 2015200','CREO PARAMETRIC BY PTC INC, 2015200','');
FILE_SCHEMA(('CONFIG_CONTROL_DESIGN'));
ENDSEC;
DATA;
#1=CARTESIAN_POINT('',(0.E0,6.E0,0.E0));
#2=DIRECTION('',(0.E0,1.E0,0.E0));
#3=DIRECTION('',(-1.E0,0.E0,0.E0));
#4=AXIS2_PLACEMENT_3D('',#1,#2,#3);
#6=DIRECTION('',(0.E0,0.E0,1.E0));
#7=VECTOR('',#6,4.676537180436E0);
#8=CARTESIAN_POINT('',(4.05E0,6.E0,-2.338268590218E0));
#9=LINE('',#8,#7);
#10=DIRECTION('',(8.660254037844E-1,0.E0,5.E-1));
#11=VECTOR('',#10,4.676537180436E0);
#12=CARTESIAN_POINT('',(0.E0,6.E0,-4.676537180436E0));
#13=LINE('',#12,#11);
#14=DIRECTION('',(8.660254037844E-1,0.E0,-5.E-1));
#15=VECTOR('',#14,4.676537180436E0);
#16=CARTESIAN_POINT('',(-4.05E0,6.E0,-2.338268590218E0));
#17=LINE('',#16,#15);
#18=DIRECTION('',(0.E0,0.E0,-1.E0));
#19=VECTOR('',#18,4.676537180436E0);
#20=CARTESIAN_POINT('',(-4.05E0,6.E0,2.338268590218E0));
#21=LINE('',#20,#19);
#22=DIRECTION('',(-8.660254037844E-1,0.E0,-5.E-1));
#23=VECTOR('',#22,4.676537180436E0);
#24=CARTESIAN_POINT('',(0.E0,6.E0,4.676537180436E0));
#25=LINE('',#24,#23);
#26=DIRECTION('',(-8.660254037844E-1,0.E0,5.E-1));
#27=VECTOR('',#26,4.676537180436E0);
#28=CARTESIAN_POINT('',(4.05E0,6.E0,2.338268590218E0));
#29=LINE('',#28,#27);
#30=DIRECTION('',(0.E0,1.E0,0.E0));
#31=VECTOR('',#30,6.E0);
#32=CARTESIAN_POINT('',(4.05E0,0.E0,-2.338268590218E0));
#33=LINE('',#32,#31);
#34=CARTESIAN_POINT('',(0.E0,0.E0,0.E0));
#35=DIRECTION('',(0.E0,-1.E0,0.E0));
#36=DIRECTION('',(-1.E0,0.E0,0.E0));
#37=AXIS2_PLACEMENT_3D('',#34,#35,#36);
#39=CARTESIAN_POINT('',(0.E0,0.E0,0.E0));
#40=DIRECTION('',(0.E0,1.E0,0.E0));
#41=DIRECTION('',(-1.E0,0.E0,0.E0));
#42=AXIS2_PLACEMENT_3D('',#39,#40,#41);
#44=DIRECTION('',(0.E0,0.E0,1.E0));
#45=VECTOR('',#44,4.676537180436E0);
#46=CARTESIAN_POINT('',(4.05E0,0.E0,-2.338268590218E0));
#47=LINE('',#46,#45);
#48=DIRECTION('',(-8.660254037844E-1,0.E0,5.E-1));
#49=VECTOR('',#48,4.676537180436E0);
#50=CARTESIAN_POINT('',(4.05E0,0.E0,2.338268590218E0));
#51=LINE('',#50,#49);
#52=DIRECTION('',(-8.660254037844E-1,0.E0,-5.E-1));
#53=VECTOR('',#52,4.676537180436E0);
#54=CARTESIAN_POINT('',(0.E0,0.E0,4.676537180436E0));
#55=LINE('',#54,#53);
#56=DIRECTION('',(0.E0,0.E0,-1.E0));
#57=VECTOR('',#56,4.676537180436E0);
#58=CARTESIAN_POINT('',(-4.05E0,0.E0,2.338268590218E0));
#59=LINE('',#58,#57);
#60=DIRECTION('',(8.660254037844E-1,0.E0,-5.E-1));
#61=VECTOR('',#60,4.676537180436E0);
#62=CARTESIAN_POINT('',(-4.05E0,0.E0,-2.338268590218E0));
#63=LINE('',#62,#61);
#64=DIRECTION('',(8.660254037844E-1,0.E0,5.E-1));
#65=VECTOR('',#64,4.676537180436E0);
#66=CARTESIAN_POINT('',(0.E0,0.E0,-4.676537180436E0));
#67=LINE('',#66,#65);
#68=DIRECTION('',(0.E0,-1.E0,0.E0));
#69=VECTOR('',#68,5.E0);
#70=CARTESIAN_POINT('',(-4.5E1,5.E0,0.E0));
#71=LINE('',#70,#69);
#72=DIRECTION('',(0.E0,-1.E0,0.E0));
#73=VECTOR('',#72,5.E0);
#74=CARTESIAN_POINT('',(4.5E1,5.E0,0.E0));
#75=LINE('',#74,#73);
#76=CARTESIAN_POINT('',(0.E0,5.E0,0.E0));
#77=DIRECTION('',(0.E0,-1.E0,0.E0));
#78=DIRECTION('',(-1.E0,0.E0,0.E0));
#79=AXIS2_PLACEMENT_3D('',#76,#77,#78);
#81=CARTESIAN_POINT('',(0.E0,5.E0,0.E0));
#82=DIRECTION('',(0.E0,1.E0,0.E0));
#83=DIRECTION('',(-1.E0,0.E0,0.E0));
#84=AXIS2_PLACEMENT_3D('',#81,#82,#83);
#86=CARTESIAN_POINT('',(0.E0,5.E0,0.E0));
#87=DIRECTION('',(0.E0,-1.E0,0.E0));
#88=DIRECTION('',(-1.E0,0.E0,0.E0));
#89=AXIS2_PLACEMENT_3D('',#86,#87,#88);
#91=CARTESIAN_POINT('',(0.E0,5.E0,0.E0));
#92=DIRECTION('',(0.E0,1.E0,0.E0));
#93=DIRECTION('',(-1.E0,0.E0,0.E0));
#94=AXIS2_PLACEMENT_3D('',#91,#92,#93);
#96=DIRECTION('',(0.E0,-1.E0,0.E0));
#97=VECTOR('',#96,8.E0);
#98=CARTESIAN_POINT('',(-8.E0,1.3E1,0.E0));
#99=LINE('',#98,#97);
#100=DIRECTION('',(0.E0,-1.E0,0.E0));
#101=VECTOR('',#100,8.E0);
#102=CARTESIAN_POINT('',(8.E0,1.3E1,0.E0));
#103=LINE('',#102,#101);
#104=CARTESIAN_POINT('',(0.E0,1.3E1,0.E0));
#105=DIRECTION('',(0.E0,-1.E0,0.E0));
#106=DIRECTION('',(-1.E0,0.E0,0.E0));
#107=AXIS2_PLACEMENT_3D('',#104,#105,#106);
#109=CARTESIAN_POINT('',(0.E0,1.3E1,0.E0));
#110=DIRECTION('',(0.E0,1.E0,0.E0));
#111=DIRECTION('',(-1.E0,0.E0,0.E0));
#112=AXIS2_PLACEMENT_3D('',#109,#110,#111);
#114=CARTESIAN_POINT('',(0.E0,1.3E1,0.E0));
#115=DIRECTION('',(0.E0,-1.E0,0.E0));
#116=DIRECTION('',(-1.E0,0.E0,0.E0));
#117=AXIS2_PLACEMENT_3D('',#114,#115,#116);
#119=CARTESIAN_POINT('',(0.E0,1.3E1,0.E0));
#120=DIRECTION('',(0.E0,1.E0,0.E0));
#121=DIRECTION('',(-1.E0,0.E0,0.E0));
#122=AXIS2_PLACEMENT_3D('',#119,#120,#121);
#124=CARTESIAN_POINT('',(0.E0,6.E0,0.E0));
#125=DIRECTION('',(0.E0,1.E0,0.E0));
#126=DIRECTION('',(1.E0,0.E0,0.E0));
#127=AXIS2_PLACEMENT_3D('',#124,#125,#126);
#129=DIRECTION('',(0.E0,1.E0,0.E0));
#130=VECTOR('',#129,7.E0);
#131=CARTESIAN_POINT('',(-2.5E0,6.E0,0.E0));
#132=LINE('',#131,#130);
#133=DIRECTION('',(0.E0,1.E0,0.E0));
#134=VECTOR('',#133,7.E0);
#135=CARTESIAN_POINT('',(2.5E0,6.E0,0.E0));
#136=LINE('',#135,#134);
#137=DIRECTION('',(0.E0,1.E0,0.E0));
#138=VECTOR('',#137,6.E0);
#139=CARTESIAN_POINT('',(4.05E0,0.E0,2.338268590218E0));
#140=LINE('',#139,#138);
#141=DIRECTION('',(0.E0,1.E0,0.E0));
#142=VECTOR('',#141,6.E0);
#143=CARTESIAN_POINT('',(0.E0,0.E0,4.676537180436E0));
#144=LINE('',#143,#142);
#145=DIRECTION('',(0.E0,1.E0,0.E0));
#146=VECTOR('',#145,6.E0);
#147=CARTESIAN_POINT('',(-4.05E0,0.E0,2.338268590218E0));
#148=LINE('',#147,#146);
#149=DIRECTION('',(0.E0,1.E0,0.E0));
#150=VECTOR('',#149,6.E0);
#151=CARTESIAN_POINT('',(-4.05E0,0.E0,-2.338268590218E0));
#152=LINE('',#151,#150);
#153=DIRECTION('',(0.E0,1.E0,0.E0));
#154=VECTOR('',#153,6.E0);
#155=CARTESIAN_POINT('',(0.E0,0.E0,-4.676537180436E0));
#156=LINE('',#155,#154);
#157=CARTESIAN_POINT('',(-8.E0,1.3E1,0.E0));
#158=CARTESIAN_POINT('',(-8.E0,5.E0,0.E0));
#159=VERTEX_POINT('',#157);
#160=VERTEX_POINT('',#158);
#161=CARTESIAN_POINT('',(-4.5E1,5.E0,0.E0));
#162=CARTESIAN_POINT('',(-4.5E1,0.E0,0.E0));
#163=VERTEX_POINT('',#161);
#164=VERTEX_POINT('',#162);
#165=CARTESIAN_POINT('',(8.E0,1.3E1,0.E0));
#166=CARTESIAN_POINT('',(8.E0,5.E0,0.E0));
#167=VERTEX_POINT('',#165);
#168=VERTEX_POINT('',#166);
#169=CARTESIAN_POINT('',(4.5E1,5.E0,0.E0));
#170=CARTESIAN_POINT('',(4.5E1,0.E0,0.E0));
#171=VERTEX_POINT('',#169);
#172=VERTEX_POINT('',#170);
#173=CARTESIAN_POINT('',(-2.5E0,1.3E1,0.E0));
#174=CARTESIAN_POINT('',(2.5E0,1.3E1,0.E0));
#175=VERTEX_POINT('',#173);
#176=VERTEX_POINT('',#174);
#177=CARTESIAN_POINT('',(4.05E0,6.E0,-2.338268590218E0));
#178=CARTESIAN_POINT('',(4.05E0,6.E0,2.338268590218E0));
#179=VERTEX_POINT('',#177);
#180=VERTEX_POINT('',#178);
#181=CARTESIAN_POINT('',(0.E0,6.E0,4.676537180436E0));
#182=VERTEX_POINT('',#181);
#183=CARTESIAN_POINT('',(-4.05E0,6.E0,2.338268590218E0));
#184=VERTEX_POINT('',#183);
#185=CARTESIAN_POINT('',(-4.05E0,6.E0,-2.338268590218E0));
#186=VERTEX_POINT('',#185);
#187=CARTESIAN_POINT('',(0.E0,6.E0,-4.676537180436E0));
#188=VERTEX_POINT('',#187);
#189=CARTESIAN_POINT('',(-2.5E0,6.E0,0.E0));
#190=CARTESIAN_POINT('',(2.5E0,6.E0,0.E0));
#191=VERTEX_POINT('',#189);
#192=VERTEX_POINT('',#190);
#193=CARTESIAN_POINT('',(4.05E0,0.E0,-2.338268590218E0));
#194=CARTESIAN_POINT('',(4.05E0,0.E0,2.338268590218E0));
#195=VERTEX_POINT('',#193);
#196=VERTEX_POINT('',#194);
#197=CARTESIAN_POINT('',(0.E0,0.E0,4.676537180436E0));
#198=VERTEX_POINT('',#197);
#199=CARTESIAN_POINT('',(-4.05E0,0.E0,2.338268590218E0));
#200=VERTEX_POINT('',#199);
#201=CARTESIAN_POINT('',(-4.05E0,0.E0,-2.338268590218E0));
#202=VERTEX_POINT('',#201);
#203=CARTESIAN_POINT('',(0.E0,0.E0,-4.676537180436E0));
#204=VERTEX_POINT('',#203);
#205=CARTESIAN_POINT('',(0.E0,-6.5E-1,0.E0));
#206=DIRECTION('',(0.E0,1.E0,0.E0));
#207=DIRECTION('',(1.E0,0.E0,0.E0));
#208=AXIS2_PLACEMENT_3D('',#205,#206,#207);
#209=CYLINDRICAL_SURFACE('',#208,2.5E0);
#211=ORIENTED_EDGE('',*,*,#210,.T.);
#213=ORIENTED_EDGE('',*,*,#212,.T.);
#215=ORIENTED_EDGE('',*,*,#214,.F.);
#217=ORIENTED_EDGE('',*,*,#216,.F.);
#218=EDGE_LOOP('',(#211,#213,#215,#217));
#219=FACE_OUTER_BOUND('',#218,.F.);
#220=ADVANCED_FACE('',(#219),#209,.F.);
#221=CARTESIAN_POINT('',(0.E0,6.E0,0.E0));
#222=DIRECTION('',(0.E0,-1.E0,0.E0));
#223=DIRECTION('',(0.E0,0.E0,1.E0));
#224=AXIS2_PLACEMENT_3D('',#221,#222,#223);
#225=PLANE('',#224);
#227=ORIENTED_EDGE('',*,*,#226,.F.);
#229=ORIENTED_EDGE('',*,*,#228,.F.);
#231=ORIENTED_EDGE('',*,*,#230,.F.);
#233=ORIENTED_EDGE('',*,*,#232,.F.);
#235=ORIENTED_EDGE('',*,*,#234,.F.);
#237=ORIENTED_EDGE('',*,*,#236,.F.);
#238=EDGE_LOOP('',(#227,#229,#231,#233,#235,#237));
#239=FACE_OUTER_BOUND('',#238,.F.);
#240=ORIENTED_EDGE('',*,*,#210,.F.);
#242=ORIENTED_EDGE('',*,*,#241,.F.);
#243=EDGE_LOOP('',(#240,#242));
#244=FACE_BOUND('',#243,.F.);
#245=ADVANCED_FACE('',(#239,#244),#225,.T.);
#246=CARTESIAN_POINT('',(4.05E0,0.E0,-2.338268590218E0));
#247=DIRECTION('',(1.E0,0.E0,0.E0));
#248=DIRECTION('',(0.E0,0.E0,1.E0));
#249=AXIS2_PLACEMENT_3D('',#246,#247,#248);
#250=PLANE('',#249);
#252=ORIENTED_EDGE('',*,*,#251,.F.);
#254=ORIENTED_EDGE('',*,*,#253,.T.);
#255=ORIENTED_EDGE('',*,*,#226,.T.);
#257=ORIENTED_EDGE('',*,*,#256,.F.);
#258=EDGE_LOOP('',(#252,#254,#255,#257));
#259=FACE_OUTER_BOUND('',#258,.F.);
#260=ADVANCED_FACE('',(#259),#250,.F.);
#261=CARTESIAN_POINT('',(0.E0,0.E0,0.E0));
#262=DIRECTION('',(0.E0,1.E0,0.E0));
#263=DIRECTION('',(1.E0,0.E0,0.E0));
#264=AXIS2_PLACEMENT_3D('',#261,#262,#263);
#265=PLANE('',#264);
#267=ORIENTED_EDGE('',*,*,#266,.F.);
#269=ORIENTED_EDGE('',*,*,#268,.T.);
#270=EDGE_LOOP('',(#267,#269));
#271=FACE_OUTER_BOUND('',#270,.F.);
#272=ORIENTED_EDGE('',*,*,#251,.T.);
#274=ORIENTED_EDGE('',*,*,#273,.T.);
#276=ORIENTED_EDGE('',*,*,#275,.T.);
#278=ORIENTED_EDGE('',*,*,#277,.T.);
#280=ORIENTED_EDGE('',*,*,#279,.T.);
#282=ORIENTED_EDGE('',*,*,#281,.T.);
#283=EDGE_LOOP('',(#272,#274,#276,#278,#280,#282));
#284=FACE_BOUND('',#283,.F.);
#285=ADVANCED_FACE('',(#271,#284),#265,.F.);
#286=CARTESIAN_POINT('',(0.E0,-6.5E-1,0.E0));
#287=DIRECTION('',(0.E0,1.E0,0.E0));
#288=DIRECTION('',(1.E0,0.E0,0.E0));
#289=AXIS2_PLACEMENT_3D('',#286,#287,#288);
#290=CYLINDRICAL_SURFACE('',#289,4.5E1);
#292=ORIENTED_EDGE('',*,*,#291,.T.);
#293=ORIENTED_EDGE('',*,*,#266,.T.);
#295=ORIENTED_EDGE('',*,*,#294,.F.);
#297=ORIENTED_EDGE('',*,*,#296,.F.);
#298=EDGE_LOOP('',(#292,#293,#295,#297));
#299=FACE_OUTER_BOUND('',#298,.F.);
#300=ADVANCED_FACE('',(#299),#290,.T.);
#301=CARTESIAN_POINT('',(0.E0,-6.5E-1,0.E0));
#302=DIRECTION('',(0.E0,1.E0,0.E0));
#303=DIRECTION('',(1.E0,0.E0,0.E0));
#304=AXIS2_PLACEMENT_3D('',#301,#302,#303);
#305=CYLINDRICAL_SURFACE('',#304,4.5E1);
#306=ORIENTED_EDGE('',*,*,#291,.F.);
#308=ORIENTED_EDGE('',*,*,#307,.T.);
#309=ORIENTED_EDGE('',*,*,#294,.T.);
#310=ORIENTED_EDGE('',*,*,#268,.F.);
#311=EDGE_LOOP('',(#306,#308,#309,#310));
#312=FACE_OUTER_BOUND('',#311,.F.);
#313=ADVANCED_FACE('',(#312),#305,.T.);
#314=CARTESIAN_POINT('',(0.E0,5.E0,0.E0));
#315=DIRECTION('',(0.E0,1.E0,0.E0));
#316=DIRECTION('',(1.E0,0.E0,0.E0));
#317=AXIS2_PLACEMENT_3D('',#314,#315,#316);
#318=PLANE('',#317);
#319=ORIENTED_EDGE('',*,*,#307,.F.);
#320=ORIENTED_EDGE('',*,*,#296,.T.);
#321=EDGE_LOOP('',(#319,#320));
#322=FACE_OUTER_BOUND('',#321,.F.);
#324=ORIENTED_EDGE('',*,*,#323,.F.);
#326=ORIENTED_EDGE('',*,*,#325,.T.);
#327=EDGE_LOOP('',(#324,#326));
#328=FACE_BOUND('',#327,.F.);
#329=ADVANCED_FACE('',(#322,#328),#318,.T.);
#330=CARTESIAN_POINT('',(0.E0,-6.5E-1,0.E0));
#331=DIRECTION('',(0.E0,1.E0,0.E0));
#332=DIRECTION('',(1.E0,0.E0,0.E0));
#333=AXIS2_PLACEMENT_3D('',#330,#331,#332);
#334=CYLINDRICAL_SURFACE('',#333,8.E0);
#336=ORIENTED_EDGE('',*,*,#335,.T.);
#337=ORIENTED_EDGE('',*,*,#323,.T.);
#339=ORIENTED_EDGE('',*,*,#338,.F.);
#341=ORIENTED_EDGE('',*,*,#340,.F.);
#342=EDGE_LOOP('',(#336,#337,#339,#341));
#343=FACE_OUTER_BOUND('',#342,.F.);
#344=ADVANCED_FACE('',(#343),#334,.T.);
#345=CARTESIAN_POINT('',(0.E0,-6.5E-1,0.E0));
#346=DIRECTION('',(0.E0,1.E0,0.E0));
#347=DIRECTION('',(1.E0,0.E0,0.E0));
#348=AXIS2_PLACEMENT_3D('',#345,#346,#347);
#349=CYLINDRICAL_SURFACE('',#348,8.E0);
#350=ORIENTED_EDGE('',*,*,#335,.F.);
#352=ORIENTED_EDGE('',*,*,#351,.T.);
#353=ORIENTED_EDGE('',*,*,#338,.T.);
#354=ORIENTED_EDGE('',*,*,#325,.F.);
#355=EDGE_LOOP('',(#350,#352,#353,#354));
#356=FACE_OUTER_BOUND('',#355,.F.);
#357=ADVANCED_FACE('',(#356),#349,.T.);
#358=CARTESIAN_POINT('',(0.E0,1.3E1,0.E0));
#359=DIRECTION('',(0.E0,1.E0,0.E0));
#360=DIRECTION('',(1.E0,0.E0,0.E0));
#361=AXIS2_PLACEMENT_3D('',#358,#359,#360);
#362=PLANE('',#361);
#363=ORIENTED_EDGE('',*,*,#351,.F.);
#364=ORIENTED_EDGE('',*,*,#340,.T.);
#365=EDGE_LOOP('',(#363,#364));
#366=FACE_OUTER_BOUND('',#365,.F.);
#368=ORIENTED_EDGE('',*,*,#367,.F.);
#369=ORIENTED_EDGE('',*,*,#214,.T.);
#370=EDGE_LOOP('',(#368,#369));
#371=FACE_BOUND('',#370,.F.);
#372=ADVANCED_FACE('',(#366,#371),#362,.T.);
#373=CARTESIAN_POINT('',(0.E0,-6.5E-1,0.E0));
#374=DIRECTION('',(0.E0,1.E0,0.E0));
#375=DIRECTION('',(1.E0,0.E0,0.E0));
#376=AXIS2_PLACEMENT_3D('',#373,#374,#375);
#377=CYLINDRICAL_SURFACE('',#376,2.5E0);
#378=ORIENTED_EDGE('',*,*,#241,.T.);
#379=ORIENTED_EDGE('',*,*,#216,.T.);
#380=ORIENTED_EDGE('',*,*,#367,.T.);
#381=ORIENTED_EDGE('',*,*,#212,.F.);
#382=EDGE_LOOP('',(#378,#379,#380,#381));
#383=FACE_OUTER_BOUND('',#382,.F.);
#384=ADVANCED_FACE('',(#383),#377,.F.);
#385=CARTESIAN_POINT('',(4.05E0,0.E0,2.338268590218E0));
#386=DIRECTION('',(5.E-1,0.E0,8.660254037844E-1));
#387=DIRECTION('',(-8.660254037844E-1,0.E0,5.E-1));
#388=AXIS2_PLACEMENT_3D('',#385,#386,#387);
#389=PLANE('',#388);
#390=ORIENTED_EDGE('',*,*,#273,.F.);
#391=ORIENTED_EDGE('',*,*,#256,.T.);
#392=ORIENTED_EDGE('',*,*,#236,.T.);
#394=ORIENTED_EDGE('',*,*,#393,.F.);
#395=EDGE_LOOP('',(#390,#391,#392,#394));
#396=FACE_OUTER_BOUND('',#395,.F.);
#397=ADVANCED_FACE('',(#396),#389,.F.);
#398=CARTESIAN_POINT('',(0.E0,0.E0,4.676537180436E0));
#399=DIRECTION('',(-5.E-1,0.E0,8.660254037844E-1));
#400=DIRECTION('',(-8.660254037844E-1,0.E0,-5.E-1));
#401=AXIS2_PLACEMENT_3D('',#398,#399,#400);
#402=PLANE('',#401);
#403=ORIENTED_EDGE('',*,*,#275,.F.);
#404=ORIENTED_EDGE('',*,*,#393,.T.);
#405=ORIENTED_EDGE('',*,*,#234,.T.);
#407=ORIENTED_EDGE('',*,*,#406,.F.);
#408=EDGE_LOOP('',(#403,#404,#405,#407));
#409=FACE_OUTER_BOUND('',#408,.F.);
#410=ADVANCED_FACE('',(#409),#402,.F.);
#411=CARTESIAN_POINT('',(-4.05E0,0.E0,2.338268590218E0));
#412=DIRECTION('',(-1.E0,0.E0,0.E0));
#413=DIRECTION('',(0.E0,0.E0,-1.E0));
#414=AXIS2_PLACEMENT_3D('',#411,#412,#413);
#415=PLANE('',#414);
#416=ORIENTED_EDGE('',*,*,#277,.F.);
#417=ORIENTED_EDGE('',*,*,#406,.T.);
#418=ORIENTED_EDGE('',*,*,#232,.T.);
#420=ORIENTED_EDGE('',*,*,#419,.F.);
#421=EDGE_LOOP('',(#416,#417,#418,#420));
#422=FACE_OUTER_BOUND('',#421,.F.);
#423=ADVANCED_FACE('',(#422),#415,.F.);
#424=CARTESIAN_POINT('',(-4.05E0,0.E0,-2.338268590218E0));
#425=DIRECTION('',(-5.E-1,0.E0,-8.660254037844E-1));
#426=DIRECTION('',(8.660254037844E-1,0.E0,-5.E-1));
#427=AXIS2_PLACEMENT_3D('',#424,#425,#426);
#428=PLANE('',#427);
#429=ORIENTED_EDGE('',*,*,#279,.F.);
#430=ORIENTED_EDGE('',*,*,#419,.T.);
#431=ORIENTED_EDGE('',*,*,#230,.T.);
#433=ORIENTED_EDGE('',*,*,#432,.F.);
#434=EDGE_LOOP('',(#429,#430,#431,#433));
#435=FACE_OUTER_BOUND('',#434,.F.);
#436=ADVANCED_FACE('',(#435),#428,.F.);
#437=CARTESIAN_POINT('',(0.E0,0.E0,-4.676537180436E0));
#438=DIRECTION('',(5.E-1,0.E0,-8.660254037844E-1));
#439=DIRECTION('',(8.660254037844E-1,0.E0,5.E-1));
#440=AXIS2_PLACEMENT_3D('',#437,#438,#439);
#441=PLANE('',#440);
#442=ORIENTED_EDGE('',*,*,#281,.F.);
#443=ORIENTED_EDGE('',*,*,#432,.T.);
#444=ORIENTED_EDGE('',*,*,#228,.T.);
#445=ORIENTED_EDGE('',*,*,#253,.F.);
#446=EDGE_LOOP('',(#442,#443,#444,#445));
#447=FACE_OUTER_BOUND('',#446,.F.);
#448=ADVANCED_FACE('',(#447),#441,.F.);
#449=CLOSED_SHELL('',(#220,#245,#260,#285,#300,#313,#329,#344,#357,#372,#384,
#397,#410,#423,#436,#448));
#450=MANIFOLD_SOLID_BREP('',#449);
#452=DIMENSIONAL_EXPONENTS(0.E0,0.E0,0.E0,0.E0,0.E0,0.E0,0.E0);
#454=PLANE_ANGLE_MEASURE_WITH_UNIT(PLANE_ANGLE_MEASURE(1.745329251994E-2),#453);
#455=(CONVERSION_BASED_UNIT('DEGREE',#454)NAMED_UNIT(*)PLANE_ANGLE_UNIT());
#457=UNCERTAINTY_MEASURE_WITH_UNIT(LENGTH_MEASURE(1.279552754852E-2),#451,
'closure',
'Maximum model space distance between geometric entities at asserted connectivities');
#458=(GEOMETRIC_REPRESENTATION_CONTEXT(3)GLOBAL_UNCERTAINTY_ASSIGNED_CONTEXT((
#457))GLOBAL_UNIT_ASSIGNED_CONTEXT((#451,#455,#456))REPRESENTATION_CONTEXT
('ID1','3'));
#460=APPLICATION_CONTEXT(
'CONFIGURATION CONTROLLED 3D DESIGNS OF MECHANICAL PARTS AND ASSEMBLIES');
#461=APPLICATION_PROTOCOL_DEFINITION('international standard',
'config_control_design',1994,#460);
#462=DESIGN_CONTEXT('',#460,'design');
#463=MECHANICAL_CONTEXT('',#460,'mechanical');
#464=PRODUCT('CALIBRATION_STAND','CALIBRATION_STAND','NOT SPECIFIED',(#463));
#465=PRODUCT_DEFINITION_FORMATION_WITH_SPECIFIED_SOURCE('2','LAST_VERSION',#464,
.MADE.);
#469=PRODUCT_CATEGORY('part','');
#470=PRODUCT_RELATED_PRODUCT_CATEGORY('detail','',(#464));
#471=PRODUCT_CATEGORY_RELATIONSHIP('','',#469,#470);
#472=SECURITY_CLASSIFICATION_LEVEL('unclassified');
#473=SECURITY_CLASSIFICATION('','',#472);
#474=CC_DESIGN_SECURITY_CLASSIFICATION(#473,(#465));
#475=APPROVAL_STATUS('approved');
#476=APPROVAL(#475,'');
#477=CC_DESIGN_APPROVAL(#476,(#473,#465,#466));
#478=CALENDAR_DATE(119,4,6);
#479=COORDINATED_UNIVERSAL_TIME_OFFSET(3,0,.AHEAD.);
#480=LOCAL_TIME(9,17,3.6E1,#479);
#481=DATE_AND_TIME(#478,#480);
#482=APPROVAL_DATE_TIME(#481,#476);
#483=DATE_TIME_ROLE('creation_date');
#484=CC_DESIGN_DATE_AND_TIME_ASSIGNMENT(#481,#483,(#466));
#485=DATE_TIME_ROLE('classification_date');
#486=CC_DESIGN_DATE_AND_TIME_ASSIGNMENT(#481,#485,(#473));
#487=PERSON('UNSPECIFIED','UNSPECIFIED',$,$,$,$);
#488=ORGANIZATION('UNSPECIFIED','UNSPECIFIED','UNSPECIFIED');
#489=PERSON_AND_ORGANIZATION(#487,#488);
#490=APPROVAL_ROLE('approver');
#491=APPROVAL_PERSON_ORGANIZATION(#489,#476,#490);
#492=PERSON_AND_ORGANIZATION_ROLE('creator');
#493=CC_DESIGN_PERSON_AND_ORGANIZATION_ASSIGNMENT(#489,#492,(#465,#466));
#494=PERSON_AND_ORGANIZATION_ROLE('design_supplier');
#495=CC_DESIGN_PERSON_AND_ORGANIZATION_ASSIGNMENT(#489,#494,(#465));
#496=PERSON_AND_ORGANIZATION_ROLE('classification_officer');
#497=CC_DESIGN_PERSON_AND_ORGANIZATION_ASSIGNMENT(#489,#496,(#473));
#498=PERSON_AND_ORGANIZATION_ROLE('design_owner');
#499=CC_DESIGN_PERSON_AND_ORGANIZATION_ASSIGNMENT(#489,#498,(#464));
#5=CIRCLE('',#4,2.5E0);
#38=CIRCLE('',#37,4.5E1);
#43=CIRCLE('',#42,4.5E1);
#80=CIRCLE('',#79,4.5E1);
#85=CIRCLE('',#84,4.5E1);
#90=CIRCLE('',#89,8.E0);
#95=CIRCLE('',#94,8.E0);
#108=CIRCLE('',#107,8.E0);
#113=CIRCLE('',#112,8.E0);
#118=CIRCLE('',#117,2.5E0);
#123=CIRCLE('',#122,2.5E0);
#128=CIRCLE('',#127,2.5E0);
#210=EDGE_CURVE('',#191,#192,#5,.T.);
#212=EDGE_CURVE('',#192,#176,#136,.T.);
#214=EDGE_CURVE('',#175,#176,#123,.T.);
#216=EDGE_CURVE('',#191,#175,#132,.T.);
#226=EDGE_CURVE('',#179,#180,#9,.T.);
#228=EDGE_CURVE('',#188,#179,#13,.T.);
#230=EDGE_CURVE('',#186,#188,#17,.T.);
#232=EDGE_CURVE('',#184,#186,#21,.T.);
#234=EDGE_CURVE('',#182,#184,#25,.T.);
#236=EDGE_CURVE('',#180,#182,#29,.T.);
#241=EDGE_CURVE('',#192,#191,#128,.T.);
#251=EDGE_CURVE('',#195,#196,#47,.T.);
#253=EDGE_CURVE('',#195,#179,#33,.T.);
#256=EDGE_CURVE('',#196,#180,#140,.T.);
#266=EDGE_CURVE('',#164,#172,#38,.T.);
#268=EDGE_CURVE('',#164,#172,#43,.T.);
#273=EDGE_CURVE('',#196,#198,#51,.T.);
#275=EDGE_CURVE('',#198,#200,#55,.T.);
#277=EDGE_CURVE('',#200,#202,#59,.T.);
#279=EDGE_CURVE('',#202,#204,#63,.T.);
#281=EDGE_CURVE('',#204,#195,#67,.T.);
#291=EDGE_CURVE('',#163,#164,#71,.T.);
#294=EDGE_CURVE('',#171,#172,#75,.T.);
#296=EDGE_CURVE('',#163,#171,#80,.T.);
#307=EDGE_CURVE('',#163,#171,#85,.T.);
#323=EDGE_CURVE('',#160,#168,#90,.T.);
#325=EDGE_CURVE('',#160,#168,#95,.T.);
#335=EDGE_CURVE('',#159,#160,#99,.T.);
#338=EDGE_CURVE('',#167,#168,#103,.T.);
#340=EDGE_CURVE('',#159,#167,#108,.T.);
#351=EDGE_CURVE('',#159,#167,#113,.T.);
#367=EDGE_CURVE('',#175,#176,#118,.T.);
#393=EDGE_CURVE('',#198,#182,#144,.T.);
#406=EDGE_CURVE('',#200,#184,#148,.T.);
#419=EDGE_CURVE('',#202,#186,#152,.T.);
#432=EDGE_CURVE('',#204,#188,#156,.T.);
#451=(LENGTH_UNIT()NAMED_UNIT(*)SI_UNIT(.MILLI.,.METRE.));
#453=(NAMED_UNIT(*)PLANE_ANGLE_UNIT()SI_UNIT($,.RADIAN.));
#456=(NAMED_UNIT(*)SI_UNIT($,.STERADIAN.)SOLID_ANGLE_UNIT());
#459=ADVANCED_BREP_SHAPE_REPRESENTATION('',(#450),#458);
#466=PRODUCT_DEFINITION('design','',#465,#462);
#467=PRODUCT_DEFINITION_SHAPE('','SHAPE FOR CALIBRATION_STAND.',#466);
#468=SHAPE_DEFINITION_REPRESENTATION(#467,#459);
ENDSEC;
END-ISO-10303-21;
